Difference in proportions – Null worlds
…
Next we calculate the difference in proportions in each of these 5,000 shuffled worlds:

null_world <- shuffled_data |>
  calculate(stat = "diff in props", order = c("Adelie", "Gentoo"))
null_world

Response: sex (factor)
Explanatory: species (factor)
Null Hypothesis: independence
# A tibble: 5,000 × 2
   replicate    stat
       <int>   <dbl>
 1         1 -0.0942
 2         2 -0.140 
 3         3  0.0279
 4         4 -0.0484
 5         5 -0.0484
 6         6 -0.0484
 7         7 -0.125 
 8         8  0.150 
 9         9 -0.0637
10        10 -0.0789
# ℹ 4,990 more rows
…
