Difference in means – Null worlds
…
The difference in means between Chinstraps and Gentoos is −1,359 grams.

We create a null distribution by shuffling (or “permuting” to use the official stats term) the species label. This simulates a world where all the penguin weights are still the same, but where species assignment doesn’t matter. This eliminates all differences between the species.

shuffled_data <- penguins |>
  filter(species %in% c("Chinstrap", "Gentoo")) |>
  specify(body_mass ~ species) |>
  hypothesize(null = "independence") |>
  generate(reps = 5000, type = "permute")
shuffled_data

Response: body_mass (numeric)
Explanatory: species (factor)
Null Hypothesis: independence
# A tibble: 935,000 × 3
# Groups:   replicate [5,000]
   body_mass species replicate
       <dbl> <fct>       <int>
 1      4700 Gentoo          1
 2      3300 Gentoo          1
 3      5650 Gentoo          1
 4      4875 Gentoo          1
 5      4450 Gentoo          1
 6      4375 Gentoo          1
 7      4625 Gentoo          1
 8      5050 Gentoo          1
 9      5500 Gentoo          1
10      4925 Gentoo          1
# ℹ 934,990 more rows

The resulting data frame has 935,000 rows! That’s because we made 5,000 versions of the original data for 187 Chinstrap and Gentoo penguins.

Next we need to calculate the \(\delta\) in each of these 5,000 worlds:

null_world <- shuffled_data |>
  calculate(stat = "diff in means", order = c("Chinstrap", "Gentoo"))
null_world

Response: body_mass (numeric)
Explanatory: species (factor)
Null Hypothesis: independence
# A tibble: 5,000 × 2
   replicate    stat
       <int>   <dbl>
 1         1  -37.5 
 2         2  152.  
 3         3  -85.5 
 4         4   -9.19
 5         5  112.  
 6         6 -127.  
 7         7  136.  
 8         8 -244.  
 9         9 -225.  
10        10 -185.  
# ℹ 4,990 more rows
…
