One-sample mean – Null worlds
…
shuffled_data <- penguins |>
  specify(response = body_mass) |>
  hypothesize(null = "point", mu = 4000) |>
  generate(reps = 5000, type = "bootstrap")

Next we need to calculate the mean in each of these 5,000 resampled worlds:

null_world <- shuffled_data |>
  calculate(stat = "mean")
null_world

Response: body_mass (numeric)
Null Hypothesis: point
# A tibble: 5,000 × 2
   replicate  stat
       <int> <dbl>
 1         1 4010.
 2         2 4017.
 3         3 3939.
 4         4 3991.
 5         5 3946.
 6         6 3967.
 7         7 3965.
 8         8 4004.
 9         9 3986.
10        10 3930.
# ℹ 4,990 more rows
…
